<?xml version="1.0" encoding="UTF-8"?>
<svg viewBox="0 0 598 448" version="1.1"
    xmlns="http://www.w3.org/2000/svg"
    xmlns:xlink="http://www.w3.org/1999/xlink">
    <g id="Logo" stroke="none" stroke-width="1" fill="none" fill-rule="evenodd">
        <g id="WorkoutRoutine" fill="#FFFFFF">
            <g id="dumbbell">
                <path d="M104,64 L56,64 C42.7,64 32,74.7 32,88 L32,192 L8,192 C3.6,192 0,195.6 0,200 L0,248 C0,252.4 3.6,256 8,256 L32,256 L32,360 C32,373.3 42.7,384 56,384 L104,384 C117.3,384 128,373.3 128,360 L128,88 C128,74.7 117.3,64 104,64 Z M590,192 L566,192 L566,88 C566,74.7 555.3,64 542,64 L494,64 C480.7,64 470,74.7 470,88 L470,360 C470,373.3 480.7,384 494,384 L542,384 C555.3,384 566,373.3 566,360 L566,256 L590,256 C594.4,256 598,252.4 598,248 L598,200 C598,195.6 594.4,192 590,192 Z M435,0 L387,0 C373.7,0 363,10.7 363,24 L363,192 L235,192 L235,24 C235,10.7 224.3,0 211,0 L163,0 C149.7,0 139,10.7 139,24 L139,424 C139,437.3 149.7,448 163,448 L211,448 C224.3,448 235,437.3 235,424 L235,256 L363,256 L363,424 C363,437.3 373.7,448 387,448 L435,448 C448.3,448 459,437.3 459,424 L459,24 C459,10.7 448.3,0 435,0 Z" id="Shape" fill-rule="nonzero"></path>
                <rect id="Rectangle" x="113" y="192" width="370" height="64"></rect>
            </g>
            <path d="M56.6437442,382.68957 C76.080729,389.88828 69.4342994,422.083803 71.3429733,431.482452 C72.2943391,436.167146 74.984024,437.224972 81.6453066,436.667241 C81.792507,436.654916 83.1955858,421.432046 85.9134736,390.283497 C86.0365032,388.873508 90.2992178,386.908142 88.0777279,386.222824 L92.5108288,383.19017 C86.9245065,381.466818 65.2899085,381.835867 58.4781308,381.835867 L56.6437442,382.68957 Z" id="coulure" stroke="#FFFFFF"></path>
        </g>
    </g>
</svg>